{
  "customer": "bespoken",
  "job": "smart-home-device-tester",
  "type": "single",
  "devicesFile": "./input/singleTypeDevices.csv",
  "utterancesFile": "./input/singleDeviceTypeUtterances.csv",
  "source": "./src/smart-home-source",
  "interceptor": "./src/smart-home-interceptor",
  "metrics": "datadog-metrics",
  "virtualDevices": {
    "<YOUR_VIRTUAL_DEVICE>": ["metadata for your virtual device"]
  }
}